simulation/qsim/ElevatorSimulation.msim.vcd
$comment
	File created using the following command:
		vcd file ElevatorSimulation.msim.vcd -direction
$end
$date
	Tue Aug 21 14:37:46 2018
$end
$version
	ModelSim Version 10.5b
$end
$timescale
	1ps
$end

$scope module Register8bit_vlg_vec_tst $end
$var reg 1 ! LOAD $end
$var reg 1 " RST $end
$var reg 4 # inA [3:0] $end
$var reg 4 $ inB [3:0] $end
$var wire 1 % outA [3] $end
$var wire 1 & outA [2] $end
$var wire 1 ' outA [1] $end
$var wire 1 ( outA [0] $end
$var wire 1 ) outB [3] $end
$var wire 1 * outB [2] $end
$var wire 1 + outB [1] $end
$var wire 1 , outB [0] $end

$scope module i1 $end
$var wire 1 - gnd $end
$var wire 1 . vcc $end
$var wire 1 / unknown $end
$var tri1 1 0 devclrn $end
$var tri1 1 1 devpor $end
$var tri1 1 2 devoe $end
$var wire 1 3 outA[0]~output_o $end
$var wire 1 4 outA[1]~output_o $end
$var wire 1 5 outA[2]~output_o $end
$var wire 1 6 outA[3]~output_o $end
$var wire 1 7 outB[0]~output_o $end
$var wire 1 8 outB[1]~output_o $end
$var wire 1 9 outB[2]~output_o $end
$var wire 1 : outB[3]~output_o $end
$var wire 1 ; LOAD~input_o $end
$var wire 1 < inA[0]~input_o $end
$var wire 1 = RST~input_o $end
$var wire 1 > Bit00|Q~q $end
$var wire 1 ? inA[1]~input_o $end
$var wire 1 @ Bit01|Q~q $end
$var wire 1 A inA[2]~input_o $end
$var wire 1 B Bit02|Q~q $end
$var wire 1 C inA[3]~input_o $end
$var wire 1 D Bit03|Q~q $end
$var wire 1 E inB[0]~input_o $end
$var wire 1 F Bit10|Q~q $end
$var wire 1 G inB[1]~input_o $end
$var wire 1 H Bit11|Q~q $end
$var wire 1 I inB[2]~input_o $end
$var wire 1 J Bit12|Q~q $end
$var wire 1 K inB[3]~input_o $end
$var wire 1 L Bit13|Q~q $end
$upscope $end
$upscope $end
$enddefinitions $end
#0
$dumpvars
1!
0"
b11 #
b11 $
0(
0'
0&
0%
0,
0+
0*
0)
0-
1.
x/
10
11
12
03
04
05
06
07
08
09
0:
1;
1<
0=
0>
1?
0@
0A
0B
0C
0D
1E
0F
1G
0H
0I
0J
0K
0L
$end
#70000
0!
0;
1>
1@
1F
1H
18
17
14
13
1(
1'
1,
1+
#80000
b111 #
b101 #
b100 #
b111 $
1I
0<
0?
1A
#90000
1!
1;
#150000
0!
0;
0>
0@
1B
1J
19
15
04
03
0(
0'
1&
1*
#160000
b1100 #
b1111 $
b1101 $
b1000 #
b1001 #
b1001 $
0G
0I
1K
1<
0A
1C
#170000
1!
1;
#230000
0!
0;
1>
0B
1D
0H
0J
1L
1:
09
08
16
05
13
1(
0&
1%
0+
0*
1)
#240000
b1000 $
b1 #
b0 $
b0 #
0<
0C
0E
0K
#250000
1!
1;
#320000
0!
0;
0>
0D
0F
0L
0:
07
06
03
0(
0%
0,
0)
#340000
1!
1;
#910000
0!
0;
